module github.com/kalyanKumarPokkula/movies

go 1.21.3

require (
	github.com/go-sql-driver/mysql v1.5.0 // indirect
	github.com/gorilla/mux v1.8.1 // indirect
	github.com/jinzhu/gorm v1.9.16 // indirect
	github.com/jinzhu/inflection v1.0.0 // indirect
)
